^C:\USERS\KARIM\SOURCE\REPOS\PROJECT11\PROJECT11\SOURCE.CPP
C:\USERS\KARIM\SOURCE\REPOS\PROJECT11\PROJECT11\DEBUG\VC141.PDB
C:\USERS\KARIM\SOURCE\REPOS\PROJECT11\PROJECT11\DEBUG\VC141.IDB
C:\USERS\KARIM\SOURCE\REPOS\PROJECT11\PROJECT11\DEBUG\SOURCE.OBJ
^C:\USERS\KARIM\DESKTOP\VILLE-ANALYSE\PROJECT11\PROJECT11\SOURCE.CPP
C:\USERS\KARIM\DESKTOP\VILLE-ANALYSE\PROJECT11\PROJECT11\DEBUG\VC141.PDB
C:\USERS\KARIM\DESKTOP\VILLE-ANALYSE\PROJECT11\PROJECT11\DEBUG\VC141.IDB
C:\USERS\KARIM\DESKTOP\VILLE-ANALYSE\PROJECT11\PROJECT11\DEBUG\SOURCE.OBJ
